{
    "widgets": [
        {
            "type": "text",
            "x": 0,
            "y": 0,
            "width": 24,
            "height": 1,
            "properties": {
                "markdown": "\n# [Ranty][Core][NTransactions-prod]\n"
            }
        },
        {
            "type": "text",
            "x": 0,
            "y": 8,
            "width": 9,
            "height": 1,
            "properties": {
                "markdown": "\n## [Edge] [Output] [CurrentState]\n"
            }
        },
        {
            "type": "text",
            "x": 0,
            "y": 1,
            "width": 9,
            "height": 1,
            "properties": {
                "markdown": "\n## [Edge] [Input] [CurrentState]\n"
            }
        },
        {
            "type": "text",
            "x": 9,
            "y": 1,
            "width": 15,
            "height": 1,
            "properties": {
                "markdown": "\n## [Internal] [Functions Overview] [CurrentState]\n"
            }
        },
        {
            "type": "text",
            "x": 9,
            "y": 8,
            "width": 15,
            "height": 1,
            "properties": {
                "markdown": "\n## [Internal] [Functions Overview] [Errors]\n"
            }
        },
        {
            "type": "metric",
            "x": 0,
            "y": 9,
            "width": 9,
            "height": 6,
            "properties": {
                "metrics": [
                    [ "AWS/SNS", "NumberOfMessagesPublished", "TopicName", "ntransactions-prod-transactionReceivedTopic" ],
                    [ ".", "NumberOfNotificationsDelivered", ".", ".", { "color": "#2ca02c" } ],
                    [ ".", "NumberOfNotificationsFailed", ".", ".", { "color": "#d62728" } ]
                ],
                "view": "bar",
                "region": "us-east-1",
                "stacked": false,
                "title": "[SNS][transactionProcessedTopic][SUM:1D]",
                "period": 86400,
                "stat": "Sum",
                "setPeriodToTimeRange": true
            }
        },
        {
            "type": "metric",
            "x": 0,
            "y": 2,
            "width": 9,
            "height": 6,
            "properties": {
                "metrics": [
                    [ "AWS/SQS", "NumberOfMessagesReceived", "QueueName", "ntransactions-prod-transactionValidationRequestedQueue" ],
                    [ ".", "NumberOfMessagesSent", ".", ".", { "color": "#2ca02c" } ],
                    [ ".", "ApproximateAgeOfOldestMessage", ".", ".", { "color": "#d62728", "stat": "Maximum" } ]
                ],
                "view": "bar",
                "region": "us-east-1",
                "stat": "Sum",
                "period": 86400,
                "title": "[SQS][transactionReceivedQueue][SUM:1D]"
            }
        },
        {
            "type": "metric",
            "x": 9,
            "y": 2,
            "width": 15,
            "height": 6,
            "properties": {
                "metrics": [
                    //[ "AWS/Lambda", "Invocations", "FunctionName", "mocks-loadperf-createTransactionMock" ],
                    [ "AWS/Lambda", "Invocations", "FunctionName", "ntransactions-prod-validateTransaction" ],
                    [ "AWS/Lambda", "Invocations", "FunctionName", "ntransactions-prod-validateReversal" ],
                    [ "AWS/Lambda", "Invocations", "FunctionName", "ntransactions-prod-sendTransaction" ],
                    [ "AWS/Lambda", "Invocations", "FunctionName", "ntransactions-prod-receiveTransaction" ],
                    //[ "AWS/Lambda", "Invocations", "FunctionName", "mocks-loadperf-onPremMock" ],
                    //[ "AWS/Lambda", "Invocations", "FunctionName", "mocks-loadperf-updatePaymentMock" ]
                ],
                "view": "timeSeries",
                "stacked": false,
                "region": "us-east-1",
                "stat": "Sum",
                "period": 300,
                "title": "[Lambda][Invocations][SUM-5MIN]"
            }
        },
        {
            "type": "log",
            "x": 9,
            "y": 9,
            "width": 15,
            "height": 6,
            "properties": {
                "query": "SOURCE '/aws/lambda/ntransactions-prod-validateTransaction' | SOURCE '/aws/lambda/ntransactions-prod-validateReversal' | SOURCE '/aws/lambda/ntransactions-prod-receiveTransaction' | SOURCE '/aws/lambda/mocks-prod-createTransactionMock' | SOURCE '/aws/lambda/mocks-loadperf-onPremMock' | SOURCE '/aws/lambda/mocks-loadperf-updatePaymentMock' | SOURCE '/aws/lambda/ntransactions-loadperf-sendTransaction' | parse @log \"lambda/*\" as FUNCTION \n| stats count(*) as TOTAL by FUNCTION, status as STATUS, code as CODE\n| filter type = 'SYS.METRIC.OUTPUT.OUTPUT_ERROR_RETURNED'\n| sort FUNCTION, STATUS\n",
                "region": "us-east-1",
                "stacked": false,
                "title": "[Lambda][Errors]",
                "view": "table"
            }
        },
        {
            "type": "log",
            "x": 0,
            "y": 15,
            "width": 24,
            "height": 6,
            "properties": {
                "query": "SOURCE '/aws/lambda/ntransactions-loadperf-validateTransaction' | SOURCE '/aws/lambda/ntransactions-loadperf-validateReversal' | SOURCE '/aws/lambda/ntransactions-loadperf-receiveTransaction' | SOURCE '/aws/lambda/mocks-loadperf-createTransactionMock' | SOURCE '/aws/lambda/mocks-loadperf-onPremMock' | SOURCE '/aws/lambda/mocks-loadperf-updatePaymentMock' | SOURCE '/aws/lambda/ntransactions-loadperf-sendTransaction' | fields @maxMemoryUsed/@memorySize*100 as memoryPressure, (coalesce(@initDuration,@duration)+@duration*ispresent(@initDuration)) as latency\n| parse @log \"lambda/*\" as FUNCTION | filter @type = 'REPORT' \n| stats count(*) as INVOCATIONS, count(@initDuration) as COLDSTART_COUNT, (INVOCATIONS-COLDSTART_COUNT)/INVOCATIONS*100 as REUSE_PERC,\navg(@initDuration) as COLDSTART_AVG, pct(@initDuration, 95) as COLDSTART_P95, max(@initDuration) as COLDSTART_MAX,\navg(latency) as LATENCY_AVG, pct(latency, 95) as LATENCY_P95, max(latency) as LATENCY_MAX,\navg(memoryPressure) as MEM_PRESS_AVG, pct(memoryPressure, 95) as MEM_PRESS_P95, max(memoryPressure) as MEM_PRESS_MAX by FUNCTION\n| sort FUNCTION\n",
                "region": "us-east-1",
                "stacked": false,
                "title": "[Lambda][Metrics][Report]",
                "view": "table"
            }
        },
        {
            "type": "log",
            "x": 0,
            "y": 27,
            "width": 24,
            "height": 6,
            "properties": {
                "query": "SOURCE '/aws/lambda/ntransactions-loadperf-validateTransaction' | SOURCE '/aws/lambda/ntransactions-loadperf-validateReversal' | SOURCE '/aws/lambda/ntransactions-loadperf-receiveTransaction' | SOURCE '/aws/lambda/mocks-loadperf-createTransactionMock' | SOURCE '/aws/lambda/mocks-loadperf-onPremMock' | SOURCE '/aws/lambda/mocks-loadperf-updatePaymentMock' | SOURCE '/aws/lambda/ntransactions-loadperf-sendTransaction' | parse @log \"lambda/*\" as FUNCTION\n| fields duration.order as ORDER, strlen(ORDER) as lg\n,duration.PROCESSING_STARTED.stepDuration as START_STEP, duration.PROCESSING_STARTED.accumDuration as START_ACCUM \n,duration.PROCESSING_FINISHED.stepDuration as FINISH_STEP, duration.PROCESSING_FINISHED.accumDuration as FINISH_ACCUM\n| stats count(ORDER) as EXECUTIONS, avg(START_STEP) as START_STEP_AVG, pct(START_STEP, 95) as START_STEP_P95, avg(START_ACCUM) as START_ACCUM_AVG, pct(START_ACCUM, 95) as START_ACCUM_P95\n, avg(FINISH_STEP) as FINISH_STEP_AVG, pct(FINISH_STEP, 95) as FINISH_STEP_P95, avg(FINISH_ACCUM) as FINISH_ACCUM_AVG, pct(FINISH_ACCUM, 95) as FINISH_ACCUM_95, max(FINISH_ACCUM) as FINISH_ACCUM_MAX\nby FUNCTION, ORDER, lg\n| filter type = 'SYS.METRIC.OUTPUT.OUTPUT_RETURNED' OR type = 'SYS.METRIC.OUTPUT.OUTPUT_ERROR_RETURNED' | sort lg, ORDER\n| display ORDER, START_STEP_AVG, START_STEP_P95, FINISH_ACCUM, START_ACCUM_P95, FINISH_STEP_AVG, FINISH_STEP_P95, FINISH_ACCUM_AVG, FINISH_ACCUM_95, FINISH_ACCUM_MAX, EXECUTIONS, FUNCTION",
                "region": "us-east-1",
                "stacked": false,
                "title": "[Lambda][Metrics][TracedDuration]",
                "view": "table"
            }
        },
        {
            "type": "log",
            "x": 0,
            "y": 21,
            "width": 12,
            "height": 6,
            "properties": {
                "query": "SOURCE '/aws/lambda/ntransactions-loadperf-validateTransaction' | SOURCE '/aws/lambda/ntransactions-loadperf-validateReversal' | SOURCE '/aws/lambda/ntransactions-loadperf-receiveTransaction' | SOURCE '/aws/lambda/mocks-loadperf-createTransactionMock' | SOURCE '/aws/lambda/mocks-loadperf-onPremMock' | SOURCE '/aws/lambda/mocks-loadperf-updatePaymentMock' | SOURCE '/aws/lambda/ntransactions-loadperf-sendTransaction' | stats count(*) as EXECUTIONS, latest(timeout) as TIMEOUT , latest(logLevel) as LOG_LEVEL, latest(inputMode) as INPUT_MODE\n\n by functionName as FUNCTION\n\n| filter type = 'SYS.METRIC.INPUT.INPUT_RECEIVED' | sort FUNCTION",
                "region": "us-east-1",
                "stacked": false,
                "title": "[Lambda][Metrics][Inputs]",
                "view": "table"
            }
        },
        {
            "type": "log",
            "x": 12,
            "y": 21,
            "width": 12,
            "height": 6,
            "properties": {
                "query": "SOURCE '/aws/lambda/ntransactions-loadperf-validateTransaction' | SOURCE '/aws/lambda/ntransactions-loadperf-validateReversal' | SOURCE '/aws/lambda/ntransactions-loadperf-receiveTransaction' | SOURCE '/aws/lambda/mocks-loadperf-createTransactionMock' | SOURCE '/aws/lambda/mocks-loadperf-onPremMock' | SOURCE '/aws/lambda/mocks-loadperf-updatePaymentMock' | SOURCE '/aws/lambda/ntransactions-loadperf-sendTransaction' | parse @log \"lambda/*\" as FUNCTION \n| stats count(*) as EXECUTIONS by FUNCTION, status as STATUS, outputMode as OUTPUT_MODE\n| filter type = 'SYS.METRIC.OUTPUT.OUTPUT_RETURNED' OR  type = 'SYS.METRIC.OUTPUT.OUTPUT_ERROR_RETURNED'\n| display FUNCTION, EXECUTIONS, STATUS, OUTPUT_MODE | sort FUNCTION, STATUS",
                "region": "us-east-1",
                "stacked": false,
                "title": "[Lambda][Metrics][Outputs]",
                "view": "table"
            }
        }
    ]
}


{
    "view": "pie",
    "metrics": [
        [ "AWS/Lambda", "Errors", "FunctionName", "ntransactions-prod-validateTransaction" ],
        [ ".", "Invocations", ".", "." ],
        [ ".", "Throttles", ".", "." ]
    ],
    "region": "us-east-1",
    "period": 300,
    "title": "Component Ntransacition Validation"
}